[
    { "name" : "Ancient Origins" },
    { "name" : "Aquapolis" },
    { "name" : "Arceus" },
    { "name" : "Base Set" },
    { "name" : "Base Set 2" },
    { "name" : "Battle Styles" },
    { "name" : "Black & White" },
    { "name" : "Boundaries Crossed" },
    { "name" : "BREAKpoint" },
    { "name" : "BREAKthrough" },
    { "name" : "Burning Shadows" },
    { "name" : "Call of Legends" },
    { "name" : "Celestial Storm" },
    { "name" : "Chilling Reign" },
    { "name" : "Cosmic Eclipse" },
    { "name" : "Crimson Invasion" },
    { "name" : "Dark Explorers" },
    { "name" : "Darkness Ablaze" },
    { "name" : "Diamond & Pearl" },
    { "name" : "Dragons Exalted" },
    { "name" : "Emerging Powers" },
    { "name" : "Evolutions" },
    { "name" : "Evolving Skies" },
    { "name" : "EX Crystal Guardians" },
    { "name" : "EX Delta Species" },
    { "name" : "EX Deoxys" },
    { "name" : "EX Dragon" },
    { "name" : "EX Dragon Frontiers" },
    { "name" : "EX Emerald" },
    { "name" : "EX FireRed & LeafGreen" },
    { "name" : "EX Hidden Legends" },
    { "name" : "EX Holon Phantoms" },
    { "name" : "EX Legend Maker" },
    { "name" : "EX Power Keepers" },
    { "name" : "EX Ruby & Sapphire" },
    { "name" : "EX Sandstorm" },
    { "name" : "EX Team Magma vs Team Aqua" },
    { "name" : "EX Team Rocket Returns" },
    { "name" : "EX Unseen Forces" },
    { "name" : "Expedition Base Set" },
    { "name" : "Fates Collide" },
    { "name" : "Flashfire" },
    { "name" : "Forbidden Light" },
    { "name" : "Fossil" },
    { "name" : "Furious Fists" },
    { "name" : "Great Encounters" },
    { "name" : "Guardians Rising" },
    { "name" : "Gym Challenge" },
    { "name" : "Gym Heroes" },
    { "name" : "HeartGold & SoulSilver" },
    { "name" : "Jungle" },
    { "name" : "Legendary Collection" },
    { "name" : "Legendary Treasures" },
    { "name" : "Legends Awakened" },
    { "name" : "Lost Thunder" },
    { "name" : "Majestic Dawn" },
    { "name" : "Mysterious Treasures" },
    { "name" : "Neo Destiny" },
    { "name" : "Neo Discovery" },
    { "name" : "Neo Genesis" },
    { "name" : "Neo Revelation" },
    { "name" : "Next Destinies" },
    { "name" : "Noble Victories" },
    { "name" : "Phantom Forces" },
    { "name" : "Plasma Blast" },
    { "name" : "Plasma Freeze" },
    { "name" : "Plasma Storm" },
    { "name" : "Platinum" },
    { "name" : "Primal Clash" },
    { "name" : "Rebel Clash" },
    { "name" : "Rising Rivals" },
    { "name" : "Roaring Skies" },
    { "name" : "Secret Wonders" },
    { "name" : "Skyridge" },
    { "name" : "Steam Siege" },
    { "name" : "Stormfront" },
    { "name" : "Sun & Moon" },
    { "name" : "Supreme Victors" },
    { "name" : "Sword & Shield" },
    { "name" : "Team Rocket" },
    { "name" : "Team Up" },
    { "name" : "Triumphant" },
    { "name" : "Ultra Prism" },
    { "name" : "Unbroken Bonds" },
    { "name" : "Undaunted" },
    { "name" : "Unified Minds" },
    { "name" : "Unleashed" },
    { "name" : "Vivid Voltage" },
    { "name" : "XY" }
]
